<svg width="11" height="18" viewBox="0 0 11 18" fill="none" xmlns="http://www.w3.org/2000/svg">
<path fill-rule="evenodd" clip-rule="evenodd" d="M8.92701 17.7866C9.06976 17.9235 9.2599 18 9.45771 18C9.65552 18 9.84569 17.9235 9.98844 17.7866C10.0581 17.7186 10.1134 17.6373 10.1511 17.5476C10.1889 17.4579 10.2084 17.3615 10.2084 17.2642C10.2084 17.1669 10.1889 17.0705 10.1511 16.9808C10.1134 16.8911 10.0581 16.8099 9.98844 16.7418L2.00269 8.86447L9.98844 1.2618C10.0581 1.19378 10.1134 1.11255 10.1511 1.02284C10.1889 0.933135 10.2084 0.836788 10.2084 0.739455C10.2084 0.642121 10.1889 0.545774 10.1511 0.456067C10.1134 0.366359 10.0581 0.28507 9.98844 0.217046C9.84683 0.0779301 9.65623 0 9.45771 0C9.2592 0 9.06863 0.0779301 8.92701 0.217046L0 8.86447L8.92701 17.7866Z" fill="#999999"/>
</svg>
