<svg width="10" height="6" viewBox="0 0 10 6" fill="none" xmlns="http://www.w3.org/2000/svg">
<path d="M8.44531 0.433594L9.5 1.48828L5 5.98828L0.5 1.48828L1.55469 0.433594L5 3.87891L8.44531 0.433594Z" fill="black"/>
</svg>
